
iguana.png
size: 2048,512
format: RGBA8888
filter: Linear,Linear
repeat: none
O
  rotate: false
  xy: 2, 101
  size: 400, 408
  orig: 400, 408
  offset: 0, 0
  index: -1
O in
  rotate: false
  xy: 404, 101
  size: 400, 408
  orig: 400, 408
  offset: 0, 0
  index: -1
iguana body
  rotate: false
  xy: 806, 289
  size: 344, 220
  orig: 344, 220
  offset: 0, 0
  index: -1
iguana tail
  rotate: false
  xy: 2, 2
  size: 94, 97
  orig: 94, 97
  offset: 0, 0
  index: -1
